<svg width="57" height="57" viewBox="0 0 57 57" fill="none" xmlns="http://www.w3.org/2000/svg">
  <g filter="url(#filter0_d)">
    <circle cx="28.5" cy="24.5" r="23" stroke="url(#paint0_linear)" stroke-width="3"/>
    <path d="M40.1111 27.375C40.1111 27.375 37.2222 31.537 37.2222 33.125C37.2222 34.713 38.5159 36 40.1111 36C41.7063 36 43 34.713 43 33.125C43 31.537 40.1111 27.375 40.1111 27.375ZM39.6881 22.7507L30.3132 13.4209C30.0311 13.1402 29.6614 13 29.2917 13C28.922 13 28.5523 13.1402 28.2707 13.4209L24.5882 17.0856L20.6981 13.2138C20.416 12.9331 19.9588 12.9331 19.6771 13.2138L18.656 14.23C18.3744 14.5107 18.3744 14.9658 18.656 15.2461L22.5466 19.1175L18.2692 23.3743C16.5769 25.0579 16.5769 27.7883 18.2692 29.4724L23.559 34.7368C24.405 35.5786 25.514 36 26.6226 36C27.7317 36 28.8403 35.5791 29.6862 34.7368L39.6877 24.7835C40.2519 24.2219 40.2519 23.3123 39.6881 22.7507ZM34.4421 25.9388H19.9759C20.0373 25.7663 20.1371 25.5804 20.3113 25.4074L20.9049 24.8167L24.5887 21.1506L27.2338 23.783C27.7976 24.3441 28.7121 24.3441 29.2759 23.783C29.8397 23.222 29.8397 22.3119 29.2759 21.7508L26.6308 19.1184L29.2917 16.4702L36.6241 23.7673L34.4421 25.9388Z" fill="url(#paint1_linear)"/>
  </g>
  <defs>
    <filter id="filter0_d" x="0" y="0" width="57" height="57" filterUnits="userSpaceOnUse" color-interpolation-filters="sRGB">
      <feFlood flood-opacity="0" result="BackgroundImageFix"/>
      <feColorMatrix in="SourceAlpha" type="matrix" values="0 0 0 0 0 0 0 0 0 0 0 0 0 0 0 0 0 0 127 0"/>
      <feOffset dy="4"/>
      <feGaussianBlur stdDeviation="2"/>
      <feColorMatrix type="matrix" values="0 0 0 0 0 0 0 0 0 0 0 0 0 0 0 0 0 0 0.25 0"/>
      <feBlend mode="normal" in2="BackgroundImageFix" result="effect1_dropShadow"/>
      <feBlend mode="normal" in="SourceGraphic" in2="effect1_dropShadow" result="shape"/>
    </filter>
    <linearGradient id="paint0_linear" x1="28.5" y1="0" x2="28.5" y2="49" gradientUnits="userSpaceOnUse">
      <stop stop-color="#FA55AE"/>
      <stop offset="1" stop-color="#F74C56"/>
    </linearGradient>
    <linearGradient id="paint1_linear" x1="30" y1="13" x2="30" y2="36" gradientUnits="userSpaceOnUse">
      <stop stop-color="#FA55AE"/>
      <stop offset="1" stop-color="#F74C56"/>
    </linearGradient>
  </defs>
</svg>
